{
  "project_info": {
    "project_number": "256902664452",
    "firebase_url": "https://decisive-studio-274111.firebaseio.com",
    "project_id": "decisive-studio-274111",
    "storage_bucket": "decisive-studio-274111.appspot.com"
  },
  "client": [
    {
      "client_info": {
        "mobilesdk_app_id": "1:256902664452:android:b68552b2878e241c294051",
        "android_client_info": {
          "package_name": "com.beeqb.orchestra"
        }
      },
      "oauth_client": [
        {
          "client_id": "256902664452-2hj6k328p0jro8tocofif554seokujrv.apps.googleusercontent.com",
          "client_type": 1,
          "android_info": {
            "package_name": "com.beeqb.orchestra",
            "certificate_hash": "2e21219159430d04d0e9857c22bc539550cb9a76"
          }
        },
        {
          "client_id": "256902664452-a7npd2ch9g0m0r3v7u7oegvm52cvrg06.apps.googleusercontent.com",
          "client_type": 1,
          "android_info": {
            "package_name": "com.beeqb.orchestra",
            "certificate_hash": "bec81173f4e5a7961a16794b0e703f6e5be61fac"
          }
        },
        {
          "client_id": "256902664452-ratumpfq3c25d0poo4fcm03mtssuuda9.apps.googleusercontent.com",
          "client_type": 1,
          "android_info": {
            "package_name": "com.beeqb.orchestra",
            "certificate_hash": "818d10e55ad4869c86b908dd00e3d6b4cb4d1c5d"
          }
        },
        {
          "client_id": "256902664452-pag5neicg0a7jirefub3tkh6i7pll6am.apps.googleusercontent.com",
          "client_type": 3
        }
      ],
      "api_key": [
        {
          "current_key": "AIzaSyD9LADAykq9vfyzwlb9yrDUD0Z4jwwu46w"
        }
      ],
      "services": {
        "appinvite_service": {
          "other_platform_oauth_client": [
            {
              "client_id": "256902664452-h67vqor7vofs45d7hj1ce4j15sdni1rn.apps.googleusercontent.com",
              "client_type": 3
            },
            {
              "client_id": "256902664452-2rhenphufpvlin9orqb57f9h5c709pk5.apps.googleusercontent.com",
              "client_type": 2,
              "ios_info": {
                "bundle_id": "com.example.sidebarAnimation"
              }
            }
          ]
        }
      }
    }
  ],
  "configuration_version": "1"
}