<svg xmlns="http://www.w3.org/2000/svg" width="48" height="49" fill="none" viewBox="0 0 48 49">
  <path fill="#8B8B8B" fill-rule="evenodd" d="M12.5 11a2.5 2.5 0 0 0-2.5 2.5v24a2.5 2.5 0 0 0 2.5 2.5h24a2.5 2.5 0 0 0 2.5-2.5v-16a1 1 0 0 1 1-1h1a1 1 0 0 1 1 1v16a5.5 5.5 0 0 1-5.5 5.5h-24A5.5 5.5 0 0 1 7 37.5v-24A5.5 5.5 0 0 1 12.5 8h17a1 1 0 0 1 1 1v1a1 1 0 0 1-1 1h-17Z" clip-rule="evenodd"/>
  <path fill="#8B8B8B" d="M23.618 30.712a1.003 1.003 0 0 1-1.641.03l-2.453-3.2a1.003 1.003 0 0 0-1.64.028l-3.66 5.09c-.538.748-.046 1.84.83 1.84h18.892c.867 0 1.362-1.073.841-1.825l-5.357-7.72a1.005 1.005 0 0 0-1.673-.014l-4.14 5.771Z"/>
  <path fill="#24DF9B" fill-rule="evenodd" d="M40 3.5a1 1 0 0 0-1 1v4h-4a1 1 0 0 0-1 1v1a1 1 0 0 0 1 1h4v4a1 1 0 0 0 1 1h1a1 1 0 0 0 1-1v-4h4a1 1 0 0 0 1-1v-1a1 1 0 0 0-1-1h-4v-4a1 1 0 0 0-1-1h-1Z" clip-rule="evenodd"/>
</svg>
