<svg xmlns="http://www.w3.org/2000/svg" width="25" height="24" fill="none" viewBox="0 0 25 24">
  <path stroke="#fff" stroke-linecap="round" stroke-linejoin="round" stroke-width="1.5" d="M12.5 2.5a9.5 9.5 0 0 1 0 19A9.5 9.5 0 0 1 3 12a9.5 9.5 0 0 1 9.5-9.5Z" clip-rule="evenodd"/>
  <path stroke="#fff" stroke-linecap="round" stroke-linejoin="round" stroke-width="1.5" d="M10.5 9v6m4-6v6"/>
</svg>
